"Competitive(1).got"
"Scenario(1).got"
"Omnipresence(1).got"
"Faction Wars(1).got"
"Massacre(1).got"
"The Turning(1).got"
"Uprising(1).got"
"Duopoly(1).got"
"Embraced(1).got"
"Dark Ages(1).got"
"Debug(1).got"